Análise de dados exploratória de lotação
…
gp.bus.crowdedness %>% 
  arrange(max.entered.passengers) %>% 
  head(30)

## # A tibble: 30 x 4
##    route max.entered.passengers median.entered.passengers
##    <chr>                  <dbl>                     <dbl>
##  1   022                      0                         0
##  2   023                      0                         0
##  3   024                      0                         0
##  4   203                      0                         0
##  5   204                      0                         0
##  6    22                      0                         0
##  7    23                      0                         0
##  8    24                      0                         0
##  9   302                      0                         0
## 10   303                      0                         0
## # ... with 20 more rows, and 1 more variables: median.crowdedness <dbl>
…
