Análise de dados exploratória de lotação
…
gp.bus.crowdedness %>% 
  arrange(max.entered.passengers) %>% 
  head(30)

## # A tibble: 30 x 4
##    route max.entered.passengers median.entered.passengers
##    <int>                  <dbl>                     <dbl>
##  1   614                   -Inf                        NA
##  2    56                      0                         0
##  3    93                      0                         0
##  4   208                      0                         0
##  5   210                      0                         0
##  6   302                      0                         0
##  7   303                      0                         0
##  8   304                      0                         0
##  9   305                      0                         0
## 10   307                      0                         0
## # ... with 20 more rows, and 1 more variables: median.crowdedness <dbl>
…
